Currency,Cash,Others,Rates,Date1,Time1,Time2
GBP,147.62263,148.36445,149.84809,2020-06-01 00:00:00,2020-06-01 10:25:18,43983.4342303241
SGD,84.69509,85.12069,85.9719,2020-06-01 00:00:00,2020-06-01 10:25:18,43983.4342303241
CAD,86.82153,87.25782,88.1304,2020-06-01 00:00:00,2020-06-01 10:25:18,43983.4342303241
AUD,79.86554,80.26687,81.06954,2020-06-01 00:00:00,2020-06-01 10:25:18,43983.4342303241
JPY,1.1055,1.11106,1.12217,2020-06-01 00:00:00,2020-06-01 10:25:18,43983.4342303241
EUR,132.61867,133.2851,134.61795,2020-06-01 00:00:00,2020-06-01 10:25:18,43983.4342303241
CHF,123.7447,124.36653,125.6102,2020-06-01 00:00:00,2020-06-01 10:25:18,43983.4342303241
KWD,385.46633,387.40335,391.27738,2020-06-01 00:00:00,2020-06-01 10:25:18,43983.4342303241
USD,119.64875,120.25,120.85,2020-06-01 00:00:00,2020-06-01 10:25:18,43983.4342303241
HKD,15.33094,15.40797,15.56205,2020-06-01 00:00:00,2020-06-01 10:25:18,43983.4342303241
CNY,16.4529,16.53557,16.70093,2020-06-01 00:00:00,2020-06-01 10:25:18,43983.4342303241
SEK,12.65388,12.71747,12.84464,2020-06-01 00:00:00,2020-06-01 10:25:18,43983.4342303241
BHD,315.57101,317.1568,320.32837,2020-06-01 00:00:00,2020-06-01 10:25:18,43983.4342303241
KRW,0.09751,0.098,0.09898,2020-06-01 00:00:00,2020-06-01 10:25:18,43983.4342303241
MYR,26.79103,26.92566,27.19492,2020-06-01 00:00:00,2020-06-01 10:25:18,43983.4342303241
THB,3.75051,3.76936,3.80705,2020-06-01 00:00:00,2020-06-01 10:25:18,43983.4342303241
AED,31.28235,31.43955,31.75395,2020-06-01 00:00:00,2020-06-01 10:25:18,43983.4342303241
QAR,31.54046,31.69896,32.01595,2020-06-01 00:00:00,2020-06-01 10:25:18,43983.4342303241
SAR,31.43275,31.5907,31.90661,2020-06-01 00:00:00,2020-06-01 10:25:18,43983.4342303241
DKK,17.68722,17.7761,17.95386,2020-06-01 00:00:00,2020-06-01 10:25:18,43983.4342303241
HKD,15.38489,15.4622,15.61682,2020-05-31 00:00:00,2020-05-31 10:19:25,43982.4301524306
SGD,84.68907,85.11464,85.96578,2020-05-31 00:00:00,2020-05-31 10:19:25,43982.4301524306
CAD,86.82681,87.26313,88.13576,2020-05-31 00:00:00,2020-05-31 10:19:25,43982.4301524306
AUD,79.42293,79.82204,80.62026,2020-05-31 00:00:00,2020-05-31 10:19:25,43982.4301524306
JPY,1.10744,1.11301,1.12414,2020-05-31 00:00:00,2020-05-31 10:19:25,43982.4301524306
CHF,124.11781,124.74152,125.98894,2020-05-31 00:00:00,2020-05-31 10:19:25,43982.4301524306
GBP,147.54946,148.29092,149.77382,2020-05-31 00:00:00,2020-05-31 10:19:25,43982.4301524306
USD,120.04675,120.65,121.25,2020-05-31 00:00:00,2020-05-31 10:19:25,43982.4301524306
CNY,16.47455,16.55734,16.72291,2020-05-31 00:00:00,2020-05-31 10:19:25,43982.4301524306
SEK,12.66516,12.72881,12.8561,2020-05-31 00:00:00,2020-05-31 10:19:25,43982.4301524306
DKK,17.69896,17.7879,17.96578,2020-05-31 00:00:00,2020-05-31 10:19:25,43982.4301524306
EUR,132.62765,133.29412,134.62706,2020-05-31 00:00:00,2020-05-31 10:19:25,43982.4301524306
KWD,386.9979,388.94262,392.83204,2020-05-31 00:00:00,2020-05-31 10:19:25,43982.4301524306
BHD,316.66249,318.25376,321.4363,2020-05-31 00:00:00,2020-05-31 10:19:25,43982.4301524306
KRW,0.09747,0.09796,0.09894,2020-05-31 00:00:00,2020-05-31 10:19:25,43982.4301524306
MYR,26.69485,26.829,27.09729,2020-05-31 00:00:00,2020-05-31 10:19:25,43982.4301524306
THB,3.75592,3.7748,3.81254,2020-05-31 00:00:00,2020-05-31 10:19:25,43982.4301524306
AED,31.38641,31.54413,31.85957,2020-05-31 00:00:00,2020-05-31 10:19:25,43982.4301524306
QAR,31.55637,31.71495,32.0321,2020-05-31 00:00:00,2020-05-31 10:19:25,43982.4301524306
SAR,31.52488,31.6833,32.00013,2020-05-31 00:00:00,2020-05-31 10:19:25,43982.4301524306